{
    "paginacion": [
      {
        "pagina": 1,
        "total_registros": 46,
        "mostrar_registros": 10
      }
    ],
    "datos": [
      {
        "moneda": "1",
        "nombre": "Guarani"
      },
      {
        "moneda": "2",
        "nombre": "Dolar"
      },
      {
        "moneda": "3",
        "nombre": "Euro"
      },
      {
        "moneda": "4",
        "nombre": "Peso Argentino"
      },
      {
        "moneda": "5",
        "nombre": "fasdfsadf"
      },
      {
        "moneda": "6",
        "nombre": "fasdfsadf"
      },
      {
        "moneda": "7",
        "nombre": "fasdfsadf"
      },
      {
        "moneda": "8",
        "nombre": "fasdfsadf"
      },
      {
        "moneda": "9",
        "nombre": "fasdsfdffsadf"
      },
      {
        "moneda": "10",
        "nombre": "fsfdffsadf"
      }    ]
  }